USA Structures Data • climateapi
…
primary_occupancy: The primary use of the structure
(e.g., “Residential”, “Commercial”)

occupancy_class: Broader classification of occupancy
type

count: Number of structures of this type in the
geographic unit

Occupancy types

dc_structures |>
  distinct(occupancy_class, primary_occupancy) |>
  arrange(occupancy_class, primary_occupancy)
#> # A tibble: 27 × 2
#>    occupancy_class primary_occupancy              
#>    <chr>           <chr>                          
#>  1 Assembly        Indoor Arena                   
#>  2 Assembly        Religious                      
#>  3 Commercial      Entertainment and Recreation   
#>  4 Commercial      Hospital                       
#>  5 Commercial      Medical Office/Clinic          
#>  6 Commercial      Parking                        
#>  7 Commercial      Personal and Repair Services   
#>  8 Commercial      Professional/Technical Services
#>  9 Commercial      Retail Trade                   
#> 10 Commercial      Theaters                       
#> # ℹ 17 more rows
…
